-------------------------------------------------------------------------------
Test set: com.myfirstspring.AppTest
-------------------------------------------------------------------------------
Tests run: 1, Failures: 0, Errors: 0, Skipped: 0, Time elapsed: 0.203 s - in com.myfirstspring.AppTest
